Assessment-3-Presentation.knit
…
These metrics can then be used to compare players and positions. They can be used to evaluate fatigue by comparing output across each quarter of a game.

Data can be presented showing summary statistics using means and standard deviations to show where players fall within the data set (Coutts et al., 2010).

---

class: left, top

# Data Overview

--

```
## # A tibble: 1,816 × 10
##     Time Latitude Longit…¹ Veloc…² Accel…³ Quarter Stopp…⁴ Dispo…⁵ Name  Stopp…⁶
##    <dbl>    <dbl>    <dbl>   <dbl>   <dbl>   <int> <chr>   <chr>   <chr>   <int>
##  1   0.1    -37.8     145.    1.77   0.664       3 Ball Up Kick    Dani…       1
##  2   0.2    -37.8     145.    1.81   0.585       3 Ball Up Kick    Dani…       1
##  3   0.3    -37.8     145.    2.14   1.26        3 Ball Up Kick    Dani…       1
##  4   0.4    -37.8     145.    2.40   1.59        3 Ball Up Kick    Dani…       1
##  5   0.5    -37.8     145.    2.44   1.30        3 Ball Up Kick    Dani…       1
##  6   0.6    -37.8     145.    2.54   1.24        3 Ball Up Kick    Dani…       1
##  7   0.7    -37.8     145.    2.73   1.39        3 Ball Up Kick    Dani…       1
##  8   0.8    -37.8     145.    2.74   1.08        3 Ball Up Kick    Dani…       1
##  9   0.9    -37.8     145.    2.88   1.16        3 Ball Up Kick    Dani…       1
## 10   1      -37.8     145.    3.03   1.25        3 Ball Up Kick    Dani…       1
## # … with 1,806 more rows, and abbreviated variable names ¹​Longitude, ²​Velocity,
## #   ³​Acceleration, ⁴​StoppageType, ⁵​DisposalType, ⁶​StoppageID
## # ℹ Use `print(n = ...)` to see more rows
```
…
